{
	"exclude": ["node_modules"],
	"compilerOptions": {
		"baseUrl": ".",
		"paths": {
			"@root/*": ["./*"],
			"@src/*": ["src/*"],
			"@views/*": ["src/views/*"],
			"@styles/*": ["src/assets/styles/*"],
			"@scripts/*": ["src/assets/scripts/*"],
			"@components/*": ["src/components/*"],
			"@fonts/*": ["src/assets/fonts/*"],
			"@images/*": ["src/assets/img/*"],
			"@icons/*": ["src/assets/img/icons/*"],
			"@videos/*": ["src/assets/videos/*"],
			"@uploads/*": ["src/assets/uploads/*"]
		}
	}
}
